{
  "$schema": "http://json-schema.org/schema#",
  "id": "https://fiware.github.io/dataModels/UrbanMobility/CalendarRule/schema.json",
  "title": "NGSI GTFS Schema",
  "description": "GTFS Calendar Rule",
  "type": "object",
  "allOf": [
    { "$ref": "https://fiware.github.io/dataModels/common-schema.json#/definitions/GSMA-Commons" },
    {
      "properties": {
        "type": {
          "type": "string",
          "enum": [
            "gtfs:CalendarRule"
          ],
          "description": "NGSI Entity type"
        },
        "hasService": {
          "type": "string",
          "format": "uri"
        },
        "monday": {
          "type": "boolean"
        },
        "tuesday": {
          "type": "boolean"
        },
        "wednesday": {
          "type": "boolean"
        },
        "thursday": {
          "type": "boolean"
        },
        "friday": {
          "type": "boolean"
        },
        "saturday": {
          "type": "boolean"
        },
        "sunday": {
          "type": "boolean"
        },
        "startDate": {
          "type": "string",
          "format": "date"
        },
        "endDate": {
          "type": "string",
          "format": "date"
        }
      }
    }
  ],
  "required": [
    "id",
    "type",
    "hasService",
    "monday",
    "tuesday",
    "wednesday",
    "thursday",
    "friday",
    "saturday",
    "sunday",
    "startDate",
    "endDate"
  ]
}
